\contentsline {section}{\numberline {1}Introduction}{1}{section.1}
\contentsline {section}{\numberline {2}System Overview}{2}{section.2}
\contentsline {subsection}{\numberline {2.1}Vision}{4}{subsection.2.1}
\contentsline {subsection}{\numberline {2.2}Localisation and Navigation}{7}{subsection.2.2}
\contentsline {subsection}{\numberline {2.3}AI Planner}{10}{subsection.2.3}
\contentsline {subsection}{\numberline {2.4}Motion}{11}{subsection.2.4}
\contentsline {paragraph}{}{11}{section*.2}
\contentsline {section}{\numberline {3}Results and Conclusion}{12}{section.3}
\contentsline {subsection}{\numberline {3.1}Results}{12}{subsection.3.1}
\contentsline {subsection}{\numberline {3.2}Conclusion}{12}{subsection.3.2}
