\relax 
\providecommand\hyper@newdestlabel[2]{}
\providecommand\HyperFirstAtBeginDocument{\AtBeginDocument}
\HyperFirstAtBeginDocument{\ifx\hyper@anchor\@undefined
\global\let\oldcontentsline\contentsline
\gdef\contentsline#1#2#3#4{\oldcontentsline{#1}{#2}{#3}}
\global\let\oldnewlabel\newlabel
\gdef\newlabel#1#2{\newlabelxx{#1}#2}
\gdef\newlabelxx#1#2#3#4#5#6{\oldnewlabel{#1}{{#2}{#3}}}
\AtEndDocument{\ifx\hyper@anchor\@undefined
\let\contentsline\oldcontentsline
\let\newlabel\oldnewlabel
\fi}
\fi}
\global\let\hyper@last\relax 
\gdef\HyperFirstAtBeginDocument#1{#1}
\providecommand\HyField@AuxAddToFields[1]{}
\providecommand\HyField@AuxAddToCoFields[2]{}
\@writefile{toc}{\contentsline {section}{\numberline {1}Introduction}{1}{section.1}}
\@writefile{toc}{\contentsline {section}{\numberline {2}System Overview}{2}{section.2}}
\@writefile{lof}{\contentsline {figure}{\numberline {1}{\ignorespaces System module breakdown}}{2}{figure.1}}
\@writefile{toc}{\contentsline {subsection}{\numberline {2.1}Vision}{4}{subsection.2.1}}
\newlabel{vision}{{2.1}{4}{Vision}{subsection.2.1}{}}
\@writefile{lof}{\contentsline {figure}{\numberline {2}{\ignorespaces The raw camera image, with a circle identifying the position of the beacon colour bands. }}{4}{figure.2}}
\newlabel{beacon1a}{{2}{4}{The raw camera image, with a circle identifying the position of the beacon colour bands}{figure.2}{}}
\@writefile{lof}{\contentsline {figure}{\numberline {3}{\ignorespaces The above image, converted into HSV colour space. }}{5}{figure.3}}
\newlabel{beacon1b}{{3}{5}{The above image, converted into HSV colour space}{figure.3}{}}
\@writefile{lof}{\contentsline {figure}{\numberline {4}{\ignorespaces The HSV colour space converted image, with thresholding applied }}{5}{figure.4}}
\newlabel{beacon1c}{{4}{5}{The HSV colour space converted image, with thresholding applied}{figure.4}{}}
\@writefile{loa}{\contentsline {algorithm}{\numberline {1}{\ignorespaces Searching for blobs in a black-and-white image}}{5}{algorithm.1}}
\@writefile{toc}{\contentsline {subsection}{\numberline {2.2}Localisation and Navigation}{7}{subsection.2.2}}
\newlabel{locnav}{{2.2}{7}{Localisation and Navigation}{subsection.2.2}{}}
\@writefile{loa}{\contentsline {algorithm}{\numberline {2}{\ignorespaces Converting a Standard occupancy grid into a Costmap}}{7}{algorithm.2}}
\@writefile{lof}{\contentsline {figure}{\numberline {5}{\ignorespaces Raw occupancy grid}}{8}{figure.5}}
\newlabel{planner1}{{5}{8}{Raw occupancy grid}{figure.5}{}}
\newlabel{fig:test1}{{5}{8}{Raw occupancy grid}{figure.5}{}}
\@writefile{lof}{\contentsline {figure}{\numberline {6}{\ignorespaces Generated costmap}}{8}{figure.6}}
\newlabel{planner1}{{6}{8}{Generated costmap}{figure.6}{}}
\@writefile{lof}{\contentsline {figure}{\numberline {7}{\ignorespaces Original Hector SLAM generated map}}{9}{figure.7}}
\newlabel{planner1}{{7}{9}{Original Hector SLAM generated map}{figure.7}{}}
\newlabel{fig:test1}{{7}{9}{Original Hector SLAM generated map}{figure.7}{}}
\@writefile{lof}{\contentsline {figure}{\numberline {8}{\ignorespaces Costmap generated from hector}}{9}{figure.8}}
\newlabel{planner1}{{8}{9}{Costmap generated from hector}{figure.8}{}}
\@writefile{lof}{\contentsline {figure}{\numberline {9}{\ignorespaces An A* generated path overlaid on the map walls.}}{9}{figure.9}}
\newlabel{planner1}{{9}{9}{An A* generated path overlaid on the map walls}{figure.9}{}}
\@writefile{toc}{\contentsline {subsection}{\numberline {2.3}AI Planner}{10}{subsection.2.3}}
\newlabel{planner}{{2.3}{10}{AI Planner}{subsection.2.3}{}}
\@writefile{lof}{\contentsline {figure}{\numberline {10}{\ignorespaces AI flow}}{10}{figure.10}}
\newlabel{planner1}{{10}{10}{AI flow}{figure.10}{}}
\@writefile{toc}{\contentsline {subsection}{\numberline {2.4}Motion}{11}{subsection.2.4}}
\newlabel{motion}{{2.4}{11}{Motion}{subsection.2.4}{}}
\@writefile{toc}{\contentsline {paragraph}{}{11}{section*.2}}
\@writefile{loa}{\contentsline {algorithm}{\numberline {3}{\ignorespaces Motion along a point path}}{11}{algorithm.3}}
\newlabel{motion_algo}{{3}{11}{}{algorithm.3}{}}
\@writefile{toc}{\contentsline {section}{\numberline {3}Results and Conclusion}{12}{section.3}}
\@writefile{toc}{\contentsline {subsection}{\numberline {3.1}Results}{12}{subsection.3.1}}
\@writefile{toc}{\contentsline {subsection}{\numberline {3.2}Conclusion}{12}{subsection.3.2}}
\citation{*}
\bibstyle{plain}
\bibdata{lab_report_1}
\bibcite{lab}{{1}{}{{}}{{}}}
\providecommand\NAT@force@numbers{}\NAT@force@numbers
